<?xml version="1.0" encoding="UTF-8" standalone="no"?>
<svg
   xmlns:vectornator="http://vectornator.io"
   xmlns:dc="http://purl.org/dc/elements/1.1/"
   xmlns:cc="http://creativecommons.org/ns#"
   xmlns:rdf="http://www.w3.org/1999/02/22-rdf-syntax-ns#"
   xmlns:svg="http://www.w3.org/2000/svg"
   xmlns="http://www.w3.org/2000/svg"
   xmlns:sodipodi="http://sodipodi.sourceforge.net/DTD/sodipodi-0.dtd"
   xmlns:inkscape="http://www.inkscape.org/namespaces/inkscape"
   style="clip-rule:evenodd;fill-rule:evenodd;stroke-linecap:round;stroke-linejoin:round"
   xml:space="preserve"
   version="1.1"
   viewBox="0 0 593.23627 593.40118"
   id="svg37"
   sodipodi:docname="stamp-of-approval.svg"
   width="593.23627"
   height="593.40118"
   inkscape:version="1.0.2 (e86c8708, 2021-01-15)"><sodipodi:namedview
   pagecolor="#ffffff"
   bordercolor="#666666"
   borderopacity="1"
   objecttolerance="10"
   gridtolerance="10"
   guidetolerance="10"
   inkscape:pageopacity="0"
   inkscape:pageshadow="2"
   inkscape:window-width="1680"
   inkscape:window-height="997"
   id="namedview39"
   showgrid="false"
   inkscape:pagecheckerboard="true"
   fit-margin-top="0"
   fit-margin-left="0"
   fit-margin-right="0"
   fit-margin-bottom="0"
   inkscape:zoom="0.91666667"
   inkscape:cx="318.1172"
   inkscape:cy="295.29966"
   inkscape:window-x="0"
   inkscape:window-y="25"
   inkscape:window-maximized="1"
   inkscape:current-layer="svg37" />
<metadata
   id="metadata10">
<vectornator:setting
   key="DimensionsVisible"
   value="1" />
<vectornator:setting
   key="New"
   value="1" />
<vectornator:setting
   key="SnapToPoints"
   value="0" />
<vectornator:setting
   key="GuidesVisible"
   value="1" />
<vectornator:setting
   key="RulersVisible"
   value="1" />
<vectornator:setting
   key="CMYKEnabledKey"
   value="0" />
<vectornator:setting
   key="SnapToEdges"
   value="0" />
<vectornator:setting
   key="DisplayWhiteBackground"
   value="0" />
<vectornator:setting
   key="SnapToGuides"
   value="1" />
<vectornator:setting
   key="GridSpacing"
   value="36" />
<vectornator:setting
   key="Units"
   value="Inches" />
<vectornator:setting
   key="DynamicGuides"
   value="0" />
<vectornator:setting
   key="SnapToGrid"
   value="0" />
<rdf:RDF><cc:Work
     rdf:about=""><dc:format>image/svg+xml</dc:format><dc:type
       rdf:resource="http://purl.org/dc/dcmitype/StillImage" /><dc:title></dc:title></cc:Work></rdf:RDF></metadata>
<defs
   id="defs12" />
<g
   id="Layer 1"
   vectornator:layerName="Layer 1"
   transform="translate(-77.882802,-10.700336)">
<g
   opacity="1"
   id="g34">
<path
   d="m 319.886,10.822 c -0.806,0.2014 -1.662,0.4532 -2.417,0.8057 L 266.711,28.547 c -2.518,0.2517 -4.885,1.2085 -6.848,2.8199 0,0.151 0,0.2517 0,0.4028 -0.403,0.2518 -0.806,0.5035 -1.209,0.8057 -0.302,0.4028 -0.554,0.8057 -0.806,1.2085 L 81.4043,227.55 c -4.8341,5.136 -4.6831,13.193 0.4028,18.128 l 354.4999,354.5 c 4.934,5.085 12.991,5.236 18.128,0.402 L 649.006,423.331 c 0.756,-0.605 1.41,-1.259 2.015,-2.015 1.661,-2.064 2.668,-4.582 2.82,-7.251 l 16.516,-49.549 c 1.662,-4.582 0.554,-9.769 -2.82,-13.294 l -109.17,-109.17 c 5.892,-3.273 13.143,-7.351 20.948,-11.279 15.862,-7.956 33.587,-17.07 46.327,-29.81 44.816,-44.816 41.744,-113.3496 -1.209,-156.3024 -21.451,-21.4513 -49.247,-32.8315 -77.345,-33.4358 -28.098,-0.6042 -56.549,9.8193 -78.957,32.2273 -12.74,12.7398 -22.408,30.6158 -30.616,46.7295 -3.927,7.7546 -7.452,14.8044 -10.474,20.5444 L 330.762,14.4476 c -2.87,-2.8199 -6.898,-4.1795 -10.876,-3.6256 z m 226.799,25.3789 c 21.25,0.5539 42.198,9.9703 59.218,26.9903 34.04,34.0401 36.96,84.2948 1.611,119.6438 -8.258,8.258 -24.07,17.221 -39.478,24.976 -10.625,5.338 -20.545,9.567 -29.005,14.905 l -92.653,-92.653 c 1.108,-2.014 2.014,-4.129 3.222,-6.446 3.374,-6.445 6.899,-13.998 10.877,-21.753 7.906,-15.5598 17.524,-32.0259 25.782,-40.2841 17.675,-17.6746 39.176,-25.9329 60.426,-25.379 z M 317.469,38.2151 643.77,364.516 634.907,389.492 292.493,47.0776 Z M 268.725,60.3714 621.613,413.26 445.975,572.784 109.2,236.01 Z"
   opacity="1"
   fill="#ffffff"
   id="path14" />
<g
   opacity="1"
   id="g32">
<path
   d="m 218.228,202.693 c -2.906,-2.617 -5.448,-4.668 -7.626,-6.152 -2.178,-1.484 -4.082,-2.491 -5.71,-3.019 -1.629,-0.529 -3.017,-0.669 -4.165,-0.419 -1.148,0.249 -2.131,0.785 -2.949,1.608 -1.636,1.645 -2.336,3.267 -2.099,4.866 0.237,1.599 1.178,3.217 2.824,4.853 1.892,1.882 3.864,3.175 5.917,3.88 2.053,0.705 4.474,1.027 7.263,0.964 z m -4.424,-41.786 c 4.732,0.233 9.158,1.294 13.279,3.183 4.12,1.889 7.936,4.579 11.446,8.069 2.523,2.509 4.369,5.163 5.539,7.963 1.17,2.8 1.718,5.622 1.644,8.466 -0.074,2.844 -0.75,5.649 -2.027,8.414 -1.278,2.766 -3.117,5.355 -5.516,7.768 l -26.506,26.655 -5.183,-5.154 c -1.069,-1.064 -1.735,-2.026 -1.997,-2.887 -0.262,-0.86 -0.094,-1.948 0.503,-3.262 l 1.795,-3.615 c -1.996,-0.131 -3.85,-0.338 -5.56,-0.62 -1.709,-0.282 -3.338,-0.715 -4.884,-1.299 -1.547,-0.583 -3.053,-1.359 -4.519,-2.325 -1.466,-0.967 -2.953,-2.2 -4.461,-3.7 -1.865,-1.854 -3.319,-3.792 -4.364,-5.813 -1.045,-2.02 -1.639,-4.069 -1.781,-6.147 -0.143,-2.078 0.207,-4.144 1.049,-6.197 0.842,-2.053 2.204,-4.026 4.085,-5.918 1.555,-1.563 3.507,-2.731 5.856,-3.503 2.35,-0.772 5.125,-0.835 8.327,-0.188 3.201,0.648 6.828,2.155 10.882,4.523 4.054,2.368 8.562,5.91 13.525,10.627 l 2.168,-2.18 c 2.645,-2.66 4.026,-5.173 4.142,-7.538 0.117,-2.366 -0.881,-4.599 -2.992,-6.698 -1.563,-1.555 -3.05,-2.665 -4.46,-3.331 -1.41,-0.666 -2.717,-1.175 -3.922,-1.527 -1.204,-0.352 -2.333,-0.684 -3.386,-0.996 -1.054,-0.311 -2.033,-0.917 -2.938,-1.817 -0.796,-0.791 -1.263,-1.651 -1.402,-2.58 -0.14,-0.93 -0.115,-1.846 0.074,-2.749 z"
   opacity="1"
   fill="#ffffff"
   id="path16" />
<path
   d="m 239.636,236.989 c -0.158,2.298 0.142,4.314 0.899,6.048 0.756,1.735 1.848,3.311 3.274,4.729 1.371,1.363 2.878,2.343 4.52,2.94 1.642,0.597 3.42,0.743 5.334,0.437 1.913,-0.306 3.948,-1.105 6.105,-2.396 2.157,-1.292 4.421,-3.13 6.794,-5.516 2.345,-2.358 4.15,-4.544 5.416,-6.557 1.266,-2.014 2.068,-3.862 2.405,-5.545 0.337,-1.682 0.251,-3.227 -0.259,-4.634 -0.51,-1.407 -1.355,-2.697 -2.534,-3.869 -2.002,-1.991 -4.07,-3.27 -6.204,-3.839 -2.135,-0.568 -4.555,-0.698 -7.262,-0.39 z m 24.866,-26.321 c 1.777,-0.087 3.534,-0.044 5.271,0.129 1.737,0.173 3.433,0.523 5.089,1.052 1.656,0.529 3.272,1.263 4.847,2.202 1.575,0.939 3.102,2.144 4.583,3.617 2.276,2.263 3.883,4.829 4.821,7.698 0.938,2.869 1.172,5.91 0.702,9.125 -0.469,3.214 -1.656,6.547 -3.561,9.998 -1.905,3.451 -4.575,6.904 -8.011,10.359 -3.163,3.181 -6.519,5.692 -10.069,7.534 -3.55,1.842 -7.102,2.96 -10.656,3.353 -3.554,0.392 -7,0.033 -10.34,-1.079 -3.339,-1.112 -6.38,-3.031 -9.122,-5.758 -2.303,-2.291 -3.916,-4.576 -4.839,-6.857 -0.922,-2.281 -1.428,-4.638 -1.517,-7.072 l -16.811,16.906 -11.353,-11.29 55.793,-56.105 6.993,6.954 c 1.426,1.418 1.717,3.017 0.875,4.796 z"
   opacity="1"
   fill="#ffffff"
   id="path18" />
<path
   d="m 283.219,280.33 c -0.158,2.297 0.142,4.313 0.899,6.048 0.757,1.734 1.848,3.31 3.274,4.728 1.371,1.364 2.878,2.344 4.52,2.941 1.643,0.597 3.421,0.742 5.334,0.436 1.913,-0.306 3.948,-1.105 6.105,-2.396 2.157,-1.291 4.421,-3.13 6.794,-5.515 2.345,-2.359 4.151,-4.544 5.416,-6.558 1.266,-2.013 2.068,-3.861 2.405,-5.544 0.337,-1.683 0.251,-3.228 -0.259,-4.635 -0.51,-1.406 -1.354,-2.696 -2.533,-3.869 -2.002,-1.99 -4.07,-3.27 -6.205,-3.838 -2.135,-0.568 -4.555,-0.698 -7.261,-0.39 z m 24.866,-26.321 c 1.777,-0.087 3.534,-0.044 5.271,0.128 1.737,0.173 3.434,0.524 5.09,1.053 1.655,0.528 3.271,1.262 4.846,2.201 1.575,0.939 3.103,2.145 4.584,3.618 2.276,2.263 3.882,4.829 4.82,7.698 0.938,2.868 1.172,5.91 0.703,9.124 -0.47,3.215 -1.657,6.547 -3.562,9.998 -1.904,3.451 -4.575,6.904 -8.01,10.359 -3.164,3.181 -6.52,5.693 -10.07,7.535 -3.55,1.842 -7.102,2.959 -10.656,3.352 -3.553,0.393 -7,0.033 -10.339,-1.078 -3.34,-1.112 -6.38,-3.032 -9.122,-5.759 -2.304,-2.29 -3.917,-4.576 -4.839,-6.857 -0.923,-2.281 -1.428,-4.638 -1.517,-7.071 l -16.812,16.905 -11.352,-11.289 55.792,-56.105 6.993,6.953 c 1.426,1.418 1.718,3.017 0.875,4.797 z"
   opacity="1"
   fill="#ffffff"
   id="path20" />
<path
   d="m 350.196,298.748 c 3.743,-1.077 7.187,-1.442 10.333,-1.095 3.146,0.346 5.898,1.692 8.256,4.037 1.92,1.909 3.033,3.916 3.34,6.021 l -9.085,7.655 c -0.683,0.412 -1.27,0.577 -1.763,0.497 -0.492,-0.081 -0.985,-0.367 -1.479,-0.858 -0.438,-0.436 -1.008,-1.125 -1.708,-2.066 -0.7,-0.942 -1.406,-1.767 -2.119,-2.476 -1.042,-1.036 -2.118,-1.806 -3.227,-2.308 -1.108,-0.503 -2.251,-0.794 -3.427,-0.873 -1.176,-0.079 -2.413,0.027 -3.711,0.318 -1.298,0.291 -2.671,0.726 -4.119,1.304 l -25.81,25.955 -11.353,-11.29 42.172,-42.408 6.704,6.668 c 1.152,1.145 1.743,2.141 1.773,2.989 0.029,0.848 -0.364,1.874 -1.181,3.08 z"
   opacity="1"
   fill="#ffffff"
   id="path22" />
<path
   d="m 392.914,326.012 c 3.181,3.163 5.569,6.547 7.165,10.152 1.596,3.605 2.393,7.274 2.389,11.007 -0.003,3.733 -0.833,7.447 -2.491,11.144 -1.658,3.696 -4.164,7.23 -7.518,10.603 -3.354,3.373 -6.881,5.906 -10.582,7.598 -3.701,1.692 -7.424,2.557 -11.17,2.595 -3.747,0.038 -7.427,-0.732 -11.041,-2.307 -3.614,-1.576 -7.011,-3.946 -10.192,-7.109 -3.209,-3.191 -5.618,-6.595 -7.228,-10.214 -1.61,-3.619 -2.406,-7.302 -2.389,-11.048 0.017,-3.747 0.854,-7.482 2.512,-11.205 1.657,-3.724 4.163,-7.272 7.517,-10.645 3.355,-3.373 6.882,-5.892 10.583,-7.557 3.7,-1.664 7.417,-2.509 11.15,-2.533 3.732,-0.024 7.413,0.759 11.04,2.348 3.628,1.59 7.046,3.98 10.255,7.171 z m -34.973,35.168 c 3.236,3.218 6.746,4.487 10.532,3.806 3.785,-0.681 7.873,-3.228 12.263,-7.643 4.364,-4.388 6.875,-8.476 7.534,-12.265 0.66,-3.79 -0.629,-7.293 -3.864,-10.511 -3.319,-3.299 -6.87,-4.609 -10.656,-3.928 -3.785,0.68 -7.86,3.214 -12.223,7.602 -4.39,4.415 -6.915,8.517 -7.574,12.306 -0.66,3.789 0.67,7.334 3.988,10.633 z"
   opacity="1"
   fill="#ffffff"
   id="path24" />
<path
   d="m 454.928,388.99 -58.831,25.842 -10.283,-10.226 25.513,-58.974 9.42,9.366 c 0.822,0.819 1.317,1.692 1.484,2.622 0.166,0.929 0.059,1.804 -0.321,2.626 L 408.165,388.3 c -0.952,1.889 -1.925,3.69 -2.918,5.402 -0.993,1.712 -2.035,3.39 -3.124,5.033 1.665,-1.071 3.358,-2.101 5.078,-3.09 1.72,-0.989 3.536,-1.952 5.447,-2.887 l 28.224,-13.656 c 0.792,-0.412 1.653,-0.538 2.583,-0.376 0.93,0.161 1.766,0.61 2.506,1.347 z"
   opacity="1"
   fill="#ffffff"
   id="path26" />
<path
   d="m 465.778,432.011 c 1.172,-1.179 2.133,-2.46 2.881,-3.843 0.748,-1.383 1.188,-2.827 1.321,-4.331 0.132,-1.504 -0.084,-3.015 -0.649,-4.531 -0.565,-1.516 -1.574,-2.997 -3.027,-4.442 -2.715,-2.7 -5.604,-4.045 -8.666,-4.037 -3.063,0.009 -6.245,1.207 -9.548,3.596 z m -24.56,-11.006 c -3.598,4.331 -5.357,8.362 -5.279,12.095 0.079,3.732 1.654,7.125 4.726,10.18 1.563,1.554 3.097,2.712 4.603,3.473 1.506,0.762 2.916,1.346 4.23,1.752 1.314,0.407 2.504,0.773 3.572,1.098 1.067,0.325 1.944,0.829 2.629,1.51 0.878,0.873 1.236,1.884 1.075,3.033 l -0.8,7.385 c -2.597,0.199 -5.079,0.035 -7.446,-0.492 -2.367,-0.526 -4.598,-1.299 -6.692,-2.319 -2.095,-1.02 -4.04,-2.217 -5.835,-3.593 -1.795,-1.376 -3.433,-2.801 -4.914,-4.273 -2.961,-2.945 -5.24,-6.179 -6.836,-9.703 -1.596,-3.523 -2.399,-7.185 -2.41,-10.986 -0.01,-3.801 0.84,-7.659 2.552,-11.574 1.712,-3.915 4.422,-7.738 8.131,-11.467 2.863,-2.879 6.036,-5.124 9.518,-6.733 3.482,-1.61 7.055,-2.474 10.719,-2.594 3.664,-0.12 7.323,0.533 10.978,1.959 3.655,1.425 7.086,3.733 10.295,6.924 2.714,2.699 4.787,5.62 6.218,8.76 1.431,3.141 2.157,6.359 2.18,9.654 0.023,3.295 -0.699,6.599 -2.166,9.912 -1.468,3.313 -3.729,6.505 -6.783,9.577 -0.845,0.85 -1.582,1.508 -2.209,1.975 -0.628,0.466 -1.201,0.769 -1.721,0.907 -0.519,0.138 -1.004,0.105 -1.456,-0.099 -0.452,-0.203 -0.938,-0.564 -1.459,-1.082 z"
   opacity="1"
   fill="#ffffff"
   id="path28" />
<path
   d="m 510.936,466.611 c 0.158,-2.298 -0.142,-4.314 -0.899,-6.048 -0.756,-1.735 -1.834,-3.297 -3.233,-4.688 -1.371,-1.363 -2.878,-2.344 -4.52,-2.941 -1.642,-0.597 -3.42,-0.742 -5.334,-0.436 -1.913,0.306 -3.948,1.105 -6.105,2.396 -2.156,1.292 -4.421,3.13 -6.793,5.516 -2.346,2.358 -4.158,4.537 -5.438,6.537 -1.279,2 -2.088,3.841 -2.425,5.524 -0.337,1.682 -0.251,3.227 0.259,4.634 0.51,1.407 1.355,2.697 2.534,3.869 2.001,1.991 4.076,3.264 6.225,3.818 2.148,0.555 4.548,0.705 7.2,0.452 z m 41.131,-18.656 -60.988,61.329 -6.992,-6.953 c -1.454,-1.445 -1.732,-3.031 -0.834,-4.756 l 2.735,-4.643 c -1.777,0.087 -3.52,0.044 -5.23,-0.129 -1.71,-0.173 -3.392,-0.523 -5.048,-1.052 -1.656,-0.529 -3.265,-1.269 -4.826,-2.222 -1.562,-0.953 -3.083,-2.166 -4.563,-3.638 -2.276,-2.263 -3.883,-4.816 -4.821,-7.657 -0.938,-2.841 -1.179,-5.876 -0.723,-9.104 0.456,-3.228 1.636,-6.568 3.541,-10.019 1.905,-3.451 4.575,-6.904 8.011,-10.359 3.136,-3.153 6.485,-5.658 10.049,-7.514 3.563,-1.856 7.122,-2.98 10.676,-3.373 3.554,-0.392 7.014,-0.033 10.381,1.079 3.366,1.112 6.421,3.031 9.163,5.758 2.303,2.291 3.902,4.563 4.798,6.816 0.895,2.254 1.4,4.611 1.516,7.072 l 21.802,-21.924 z"
   opacity="1"
   fill="#ffffff"
   id="path30" />
</g>
</g>
</g>
</svg>
